{
  "data": [
    {
      "id": 3368,
      "attributes": {
        "party": "Happy Hunger Engagement",
        "partyDescription": "Error facere sed eaque quisquam officiis sed deleniti. Harum excepturi odio impedit nam amet earum numquam. Debitis excepturi fugiat atque iusto vel velit.",
        "partyAbbreviation": "HHE",
        "mainColor": "Yellow",
        "createdAt": "2023-05-06T09:38:08.841Z",
        "updatedAt": "2023-05-06T09:38:08.862Z",
        "publishedAt": "2023-05-06T09:38:08.836Z",
        "locale": "en",
        "logo": {
          "data": null
        },
        "candidates": {
          "data": [
            {
              "id": 7568,
              "attributes": {
                "firstName": "Zachary",
                "lastName": "Grant",
                "politicalExperience": "Laboriosam esse nulla repellendus odio quidem nesciunt deserunt tempore iure. At quis molestias enim aspernatur animi. Nulla sit quam laboriosam inventore odio illo. Quis quia deserunt nesciunt sit in vero hic impedit nesciunt. Sunt doloribus minima. Sint tempora alias sapiente totam.",
                "candidateId": "twifo9e7yw",
                "createdAt": "2023-05-06T09:38:09.163Z",
                "updatedAt": "2023-05-06T09:38:09.183Z",
                "publishedAt": "2023-05-06T09:38:09.161Z",
                "locale": "en"
              }
            },
            {
              "id": 7569,
              "attributes": {
                "firstName": "Zachary",
                "lastName": "Grant",
                "politicalExperience": "Veniam fugiat porro doloribus rem. Dolorem modi porro aliquam voluptas aliquam repellendus excepturi dolorum fugiat. Reiciendis natus vitae. Minima qui facere odio et laborum repudiandae cupiditate odit.",
                "candidateId": "twifo9e7yw",
                "createdAt": "2023-05-06T09:38:09.173Z",
                "updatedAt": "2023-05-06T09:38:09.186Z",
                "publishedAt": "2023-05-06T09:38:09.169Z",
                "locale": "fi-FI"
              }
            },
            {
              "id": 7584,
              "attributes": {
                "firstName": "Michel",
                "lastName": "Friesen",
                "politicalExperience": "Distinctio rem sint quaerat aut excepturi impedit ipsam eos. Totam in veniam numquam. Nam aperiam vero placeat libero dignissimos veritatis unde. Placeat illo nisi exercitationem architecto cupiditate. Consequuntur blanditiis quia nihil.",
                "candidateId": "9l3t5twagx",
                "createdAt": "2023-05-06T09:38:09.345Z",
                "updatedAt": "2023-05-06T09:38:09.360Z",
                "publishedAt": "2023-05-06T09:38:09.343Z",
                "locale": "en"
              }
            },
            {
              "id": 7585,
              "attributes": {
                "firstName": "Michel",
                "lastName": "Friesen",
                "politicalExperience": "Fuga ut eaque culpa molestiae dolore ducimus. A occaecati dolorum tenetur officiis cum natus omnis iusto nemo. Vel quos accusantium dolorem ad ad sint adipisci quae.",
                "candidateId": "9l3t5twagx",
                "createdAt": "2023-05-06T09:38:09.353Z",
                "updatedAt": "2023-05-06T09:38:09.363Z",
                "publishedAt": "2023-05-06T09:38:09.350Z",
                "locale": "fi-FI"
              }
            }
          ]
        },
        "localizations": {
          "data": [
            {
              "id": 3379,
              "attributes": {
                "party": "Happy Hunger Engagement",
                "partyDescription": "Repudiandae culpa ipsa ducimus eveniet facilis odio voluptates natus. Fugiat beatae eum porro veniam earum magni recusandae quod. Et nisi molestiae.",
                "partyAbbreviation": "HHE",
                "mainColor": "Yellow",
                "createdAt": "2023-05-06T09:38:08.841Z",
                "updatedAt": "2023-05-06T09:38:08.900Z",
                "publishedAt": "2023-05-06T09:38:08.845Z",
                "locale": "fi-FI"
              }
            }
          ]
        }
      }
    },
    {
      "id": 3377,
      "attributes": {
        "party": "Complete Care Manipulation",
        "partyDescription": "Libero tempore saepe sequi eum aliquid magnam error sed. Perspiciatis animi alias nisi natus nostrum eaque voluptatibus natus. Ipsa dolor quam minima.",
        "partyAbbreviation": "CCM",
        "mainColor": "Yellow",
        "createdAt": "2023-05-06T09:38:08.841Z",
        "updatedAt": "2023-05-06T09:38:08.862Z",
        "publishedAt": "2023-05-06T09:38:08.841Z",
        "locale": "en",
        "logo": {
          "data": null
        },
        "candidates": {
          "data": [
            {
              "id": 7596,
              "attributes": {
                "firstName": "Vivienne",
                "lastName": "Batz",
                "politicalExperience": "Et eos nostrum autem non numquam repellendus. At enim eligendi qui dolore. Asperiores vero vitae. Occaecati rerum totam quidem officiis itaque reiciendis nemo dicta.",
                "candidateId": "u67xcgmgi3",
                "createdAt": "2023-05-06T09:38:09.479Z",
                "updatedAt": "2023-05-06T09:38:09.495Z",
                "publishedAt": "2023-05-06T09:38:09.477Z",
                "locale": "en"
              }
            },
            {
              "id": 7597,
              "attributes": {
                "firstName": "Vivienne",
                "lastName": "Batz",
                "politicalExperience": "Quasi soluta expedita at consequatur vero voluptates harum. Similique eligendi laudantium ex ratione quia. Et corrupti temporibus. Dolore mollitia minima. Et blanditiis est dolor.",
                "candidateId": "u67xcgmgi3",
                "createdAt": "2023-05-06T09:38:09.486Z",
                "updatedAt": "2023-05-06T09:38:09.498Z",
                "publishedAt": "2023-05-06T09:38:09.484Z",
                "locale": "fi-FI"
              }
            }
          ]
        },
        "localizations": {
          "data": [
            {
              "id": 3388,
              "attributes": {
                "party": "Complete Care Manipulation",
                "partyDescription": "Possimus labore alias laudantium. Nesciunt officia totam. Sit illo sint.",
                "partyAbbreviation": "CCM",
                "mainColor": "Yellow",
                "createdAt": "2023-05-06T09:38:08.841Z",
                "updatedAt": "2023-05-06T09:38:08.901Z",
                "publishedAt": "2023-05-06T09:38:08.846Z",
                "locale": "fi-FI"
              }
            }
          ]
        }
      }
    },
    {
      "id": 3374,
      "attributes": {
        "party": "Starchy Minute Yolk",
        "partyDescription": "Blanditiis unde accusantium. Quo dolor est id sit tempora. In magni consectetur.",
        "partyAbbreviation": "SMY",
        "mainColor": "Orange",
        "createdAt": "2023-05-06T09:38:08.841Z",
        "updatedAt": "2023-05-06T09:38:08.862Z",
        "publishedAt": "2023-05-06T09:38:08.839Z",
        "locale": "en",
        "logo": {
          "data": null
        },
        "candidates": {
          "data": []
        },
        "localizations": {
          "data": [
            {
              "id": 3385,
              "attributes": {
                "party": "Starchy Minute Yolk",
                "partyDescription": "Repudiandae laudantium consequatur ab sapiente maxime. Perspiciatis ipsum at eveniet. Eaque id molestiae veniam laborum.",
                "partyAbbreviation": "SMY",
                "mainColor": "Orange",
                "createdAt": "2023-05-06T09:38:08.841Z",
                "updatedAt": "2023-05-06T09:38:08.898Z",
                "publishedAt": "2023-05-06T09:38:08.845Z",
                "locale": "fi-FI"
              }
            }
          ]
        }
      }
    },
    {
      "id": 3370,
      "attributes": {
        "party": "Mature Configuration Somewhere",
        "partyDescription": "Officia ratione quas. Blanditiis doloremque voluptatibus nobis. Rem at atque corporis ipsam nihil aspernatur optio id.",
        "partyAbbreviation": "MCS",
        "mainColor": "Green",
        "createdAt": "2023-05-06T09:38:08.841Z",
        "updatedAt": "2023-05-06T09:38:08.862Z",
        "publishedAt": "2023-05-06T09:38:08.838Z",
        "locale": "en",
        "logo": {
          "data": null
        },
        "candidates": {
          "data": [
            {
              "id": 7556,
              "attributes": {
                "firstName": "Jena",
                "lastName": "Howe",
                "politicalExperience": "Corrupti facilis veniam quod quas velit vitae occaecati. Dolorum optio fugit facere blanditiis officia quaerat excepturi deleniti dolorum. Veniam quibusdam sit deleniti optio ea cum beatae dolor. Excepturi consequatur praesentium repellendus labore fugiat architecto. Consequuntur nemo cupiditate aliquid repellat officia cum sit aliquid. Delectus vero consectetur repellendus numquam praesentium quaerat tempore voluptatem sint.",
                "candidateId": "0k1sagoypa",
                "createdAt": "2023-05-06T09:38:09.036Z",
                "updatedAt": "2023-05-06T09:38:09.049Z",
                "publishedAt": "2023-05-06T09:38:09.034Z",
                "locale": "en"
              }
            },
            {
              "id": 7557,
              "attributes": {
                "firstName": "Jena",
                "lastName": "Howe",
                "politicalExperience": "Nemo repellendus minima dignissimos. Sapiente eum pariatur. Blanditiis tenetur nemo id rem corrupti architecto iure vero. Nisi porro necessitatibus. Sit dolorem excepturi quam quo eos id quibusdam placeat necessitatibus.",
                "candidateId": "0k1sagoypa",
                "createdAt": "2023-05-06T09:38:09.043Z",
                "updatedAt": "2023-05-06T09:38:09.052Z",
                "publishedAt": "2023-05-06T09:38:09.041Z",
                "locale": "fi-FI"
              }
            },
            {
              "id": 7574,
              "attributes": {
                "firstName": "Ayla",
                "lastName": "Metz",
                "politicalExperience": "Sapiente eos ab debitis doloremque at unde. Cupiditate nostrum enim officia quod perferendis facilis hic repudiandae. Laboriosam consequatur expedita. Vero eligendi molestiae excepturi. Blanditiis sit aspernatur velit tempora facilis quibusdam voluptate nobis sit. Atque totam officia distinctio repellendus repellat doloremque quibusdam.",
                "candidateId": "oo52d5k3o9",
                "createdAt": "2023-05-06T09:38:09.238Z",
                "updatedAt": "2023-05-06T09:38:09.252Z",
                "publishedAt": "2023-05-06T09:38:09.236Z",
                "locale": "en"
              }
            },
            {
              "id": 7575,
              "attributes": {
                "firstName": "Ayla",
                "lastName": "Metz",
                "politicalExperience": "Tempore ratione ex. Quisquam voluptatum qui ipsum facere maxime. Corrupti laudantium consectetur nostrum ut nisi at iusto doloremque. Voluptatibus sint veritatis expedita aspernatur molestias et excepturi nemo.",
                "candidateId": "oo52d5k3o9",
                "createdAt": "2023-05-06T09:38:09.246Z",
                "updatedAt": "2023-05-06T09:38:09.255Z",
                "publishedAt": "2023-05-06T09:38:09.244Z",
                "locale": "fi-FI"
              }
            },
            {
              "id": 7582,
              "attributes": {
                "firstName": "Helena",
                "lastName": "Corkery",
                "politicalExperience": "Ipsum perspiciatis saepe nobis vel cumque laborum eius laboriosam praesentium. Hic temporibus natus voluptates impedit nostrum ipsum fuga quasi porro. Nisi deleniti nihil exercitationem saepe.",
                "candidateId": "sgqd6m23ht",
                "createdAt": "2023-05-06T09:38:09.327Z",
                "updatedAt": "2023-05-06T09:38:09.338Z",
                "publishedAt": "2023-05-06T09:38:09.325Z",
                "locale": "en"
              }
            },
            {
              "id": 7583,
              "attributes": {
                "firstName": "Helena",
                "lastName": "Corkery",
                "politicalExperience": "Libero ipsam delectus consequuntur porro soluta perferendis. Omnis exercitationem fugiat aspernatur iusto fugiat. Dignissimos assumenda unde porro quidem. Occaecati harum inventore.",
                "candidateId": "sgqd6m23ht",
                "createdAt": "2023-05-06T09:38:09.334Z",
                "updatedAt": "2023-05-06T09:38:09.341Z",
                "publishedAt": "2023-05-06T09:38:09.332Z",
                "locale": "fi-FI"
              }
            },
            {
              "id": 7588,
              "attributes": {
                "firstName": "Brooke",
                "lastName": "Kiehn",
                "politicalExperience": "Esse cupiditate facilis excepturi possimus quaerat ipsa magni. Vero sapiente illum amet veritatis rem iste. Occaecati eligendi perspiciatis doloribus officia quas eligendi veritatis qui. Enim tempore nesciunt tempore dolorem fuga repellendus quod et. Tenetur magni eum laudantium. Sint ducimus ipsam delectus molestias quaerat ab.",
                "candidateId": "zpm5fw5qd2",
                "createdAt": "2023-05-06T09:38:09.392Z",
                "updatedAt": "2023-05-06T09:38:09.404Z",
                "publishedAt": "2023-05-06T09:38:09.388Z",
                "locale": "en"
              }
            },
            {
              "id": 7589,
              "attributes": {
                "firstName": "Brooke",
                "lastName": "Kiehn",
                "politicalExperience": "Consequuntur eaque reiciendis soluta atque quos voluptate incidunt voluptas. Maiores nisi illo voluptatibus debitis ipsam fugiat hic doloremque repudiandae. Quos odio quas vel veritatis provident. Quo minus quos possimus fuga enim. Sed vel quia facilis aperiam dicta.",
                "candidateId": "zpm5fw5qd2",
                "createdAt": "2023-05-06T09:38:09.399Z",
                "updatedAt": "2023-05-06T09:38:09.406Z",
                "publishedAt": "2023-05-06T09:38:09.397Z",
                "locale": "fi-FI"
              }
            },
            {
              "id": 7590,
              "attributes": {
                "firstName": "Jewell",
                "lastName": "Swift",
                "politicalExperience": "Commodi rem sapiente consectetur voluptas suscipit. Occaecati praesentium est non occaecati. Iste eligendi velit. Eos nulla aut itaque laboriosam facere praesentium consequuntur error delectus. Voluptates harum eligendi delectus explicabo officiis tempore voluptatibus possimus.",
                "candidateId": "ei86i3mtlw",
                "createdAt": "2023-05-06T09:38:09.411Z",
                "updatedAt": "2023-05-06T09:38:09.425Z",
                "publishedAt": "2023-05-06T09:38:09.409Z",
                "locale": "en"
              }
            },
            {
              "id": 7591,
              "attributes": {
                "firstName": "Jewell",
                "lastName": "Swift",
                "politicalExperience": "Ipsa illum quia explicabo aliquam libero itaque. Natus quo officia similique magni expedita distinctio eos voluptate. Ipsa iusto temporibus temporibus tempora rem sint eligendi. Alias provident voluptates voluptatibus quibusdam accusamus unde dolorem. Qui repudiandae voluptatem accusamus corporis qui sit.",
                "candidateId": "ei86i3mtlw",
                "createdAt": "2023-05-06T09:38:09.419Z",
                "updatedAt": "2023-05-06T09:38:09.428Z",
                "publishedAt": "2023-05-06T09:38:09.417Z",
                "locale": "fi-FI"
              }
            }
          ]
        },
        "localizations": {
          "data": [
            {
              "id": 3381,
              "attributes": {
                "party": "Mature Configuration Somewhere",
                "partyDescription": "Minus facere rerum fugiat exercitationem tenetur iusto. Facilis quibusdam distinctio alias incidunt soluta. Corrupti eos accusantium atque eius.",
                "partyAbbreviation": "MCS",
                "mainColor": "Green",
                "createdAt": "2023-05-06T09:38:08.841Z",
                "updatedAt": "2023-05-06T09:38:08.906Z",
                "publishedAt": "2023-05-06T09:38:08.845Z",
                "locale": "fi-FI"
              }
            }
          ]
        }
      }
    },
    {
      "id": 3371,
      "attributes": {
        "party": "Back Feature Technique",
        "partyDescription": "Hic sunt fuga maxime debitis. Soluta qui numquam ad tempora ratione eligendi. Nisi repudiandae rerum iste corrupti.",
        "partyAbbreviation": "BFT",
        "mainColor": "Red",
        "createdAt": "2023-05-06T09:38:08.841Z",
        "updatedAt": "2023-05-06T09:38:08.862Z",
        "publishedAt": "2023-05-06T09:38:08.838Z",
        "locale": "en",
        "logo": {
          "data": null
        },
        "candidates": {
          "data": []
        },
        "localizations": {
          "data": [
            {
              "id": 3382,
              "attributes": {
                "party": "Back Feature Technique",
                "partyDescription": "Culpa tenetur aliquam neque molestiae nisi ipsa consequatur nam. Voluptas magnam repudiandae quas quasi cum porro. Explicabo iusto placeat impedit dolorum dignissimos architecto sequi ducimus.",
                "partyAbbreviation": "BFT",
                "mainColor": "Red",
                "createdAt": "2023-05-06T09:38:08.841Z",
                "updatedAt": "2023-05-06T09:38:08.904Z",
                "publishedAt": "2023-05-06T09:38:08.845Z",
                "locale": "fi-FI"
              }
            }
          ]
        }
      }
    }
  ],
  "meta": {
    "pagination": {
      "page": 1,
      "pageSize": 5,
      "pageCount": 3,
      "total": 11
    }
  }
}
